{
    "display_name" : "Spotify",
    "external_urls" : {
        "spotify" : "https://open.spotify.com/user/spotify"
    },
    "href" : "https://api.spotify.com/v1/users/spotify",
    "id" : "spotify",
    "type" : "user",
    "uri" : "spotify:user:spotify"
}
